info face="Liberation Mono" size=32 bold=0 italic=0 charset="" unicode=0 stretchH=100 smooth=1 aa=1 padding=2,2,2,2 spacing=0,0
common lineHeight=41 base=27 scaleW=512 scaleH=512 pages=1 packed=0
page id=0 file="DEFAULT.png"
chars count=95
char id=32   x=0     y=0     width=0     height=0     xoffset=0     yoffset=27    xadvance=23     page=0  chnl=0 
char id=124   x=0     y=0     width=8     height=36     xoffset=6     yoffset=1    xadvance=23     page=0  chnl=0 
char id=125   x=8     y=0     width=19     height=36     xoffset=0     yoffset=1    xadvance=23     page=0  chnl=0 
char id=123   x=27     y=0     width=19     height=36     xoffset=1     yoffset=1    xadvance=23     page=0  chnl=0 
char id=93   x=46     y=0     width=14     height=36     xoffset=2     yoffset=1    xadvance=23     page=0  chnl=0 
char id=91   x=60     y=0     width=14     height=36     xoffset=4     yoffset=1    xadvance=23     page=0  chnl=0 
char id=41   x=74     y=0     width=14     height=36     xoffset=3     yoffset=1    xadvance=23     page=0  chnl=0 
char id=40   x=88     y=0     width=14     height=36     xoffset=3     yoffset=1    xadvance=23     page=0  chnl=0 
char id=106   x=102     y=0     width=17     height=36     xoffset=-1     yoffset=1    xadvance=23     page=0  chnl=0 
char id=36   x=119     y=0     width=22     height=33     xoffset=-1     yoffset=0    xadvance=23     page=0  chnl=0 
char id=64   x=141     y=0     width=24     height=33     xoffset=-2     yoffset=1    xadvance=23     page=0  chnl=0 
char id=81   x=165     y=0     width=22     height=33     xoffset=-1     yoffset=3    xadvance=23     page=0  chnl=0 
char id=121   x=187     y=0     width=22     height=30     xoffset=-1     yoffset=7    xadvance=23     page=0  chnl=0 
char id=113   x=209     y=0     width=20     height=30     xoffset=0     yoffset=7    xadvance=23     page=0  chnl=0 
char id=112   x=229     y=0     width=20     height=30     xoffset=0     yoffset=7    xadvance=23     page=0  chnl=0 
char id=103   x=249     y=0     width=20     height=30     xoffset=0     yoffset=7    xadvance=23     page=0  chnl=0 
char id=92   x=269     y=0     width=22     height=29     xoffset=-1     yoffset=1    xadvance=23     page=0  chnl=0 
char id=47   x=291     y=0     width=22     height=29     xoffset=-1     yoffset=1    xadvance=23     page=0  chnl=0 
char id=108   x=313     y=0     width=21     height=29     xoffset=0     yoffset=1    xadvance=23     page=0  chnl=0 
char id=107   x=334     y=0     width=20     height=29     xoffset=1     yoffset=1    xadvance=23     page=0  chnl=0 
char id=105   x=354     y=0     width=21     height=29     xoffset=0     yoffset=1    xadvance=23     page=0  chnl=0 
char id=104   x=375     y=0     width=20     height=29     xoffset=0     yoffset=1    xadvance=23     page=0  chnl=0 
char id=102   x=395     y=0     width=20     height=29     xoffset=0     yoffset=1    xadvance=23     page=0  chnl=0 
char id=100   x=415     y=0     width=20     height=29     xoffset=0     yoffset=1    xadvance=23     page=0  chnl=0 
char id=98   x=435     y=0     width=20     height=29     xoffset=0     yoffset=1    xadvance=23     page=0  chnl=0 
char id=59   x=455     y=0     width=13     height=28     xoffset=3     yoffset=7    xadvance=23     page=0  chnl=0 
char id=38   x=468     y=0     width=24     height=27     xoffset=-2     yoffset=3    xadvance=23     page=0  chnl=0 
char id=35   x=0     y=36     width=24     height=27     xoffset=-2     yoffset=3    xadvance=23     page=0  chnl=0 
char id=37   x=24     y=36     width=25     height=27     xoffset=-2     yoffset=3    xadvance=23     page=0  chnl=0 
char id=63   x=49     y=36     width=21     height=27     xoffset=-1     yoffset=3    xadvance=23     page=0  chnl=0 
char id=33   x=70     y=36     width=10     height=27     xoffset=5     yoffset=3    xadvance=23     page=0  chnl=0 
char id=48   x=80     y=36     width=22     height=27     xoffset=-1     yoffset=3    xadvance=23     page=0  chnl=0 
char id=57   x=102     y=36     width=20     height=27     xoffset=0     yoffset=3    xadvance=23     page=0  chnl=0 
char id=56   x=122     y=36     width=20     height=27     xoffset=0     yoffset=3    xadvance=23     page=0  chnl=0 
char id=55   x=142     y=36     width=20     height=27     xoffset=0     yoffset=3    xadvance=23     page=0  chnl=0 
char id=54   x=162     y=36     width=20     height=27     xoffset=0     yoffset=3    xadvance=23     page=0  chnl=0 
char id=53   x=182     y=36     width=20     height=27     xoffset=0     yoffset=3    xadvance=23     page=0  chnl=0 
char id=52   x=202     y=36     width=22     height=27     xoffset=-1     yoffset=3    xadvance=23     page=0  chnl=0 
char id=51   x=224     y=36     width=20     height=27     xoffset=0     yoffset=3    xadvance=23     page=0  chnl=0 
char id=50   x=244     y=36     width=20     height=27     xoffset=0     yoffset=3    xadvance=23     page=0  chnl=0 
char id=49   x=264     y=36     width=21     height=27     xoffset=0     yoffset=3    xadvance=23     page=0  chnl=0 
char id=116   x=285     y=36     width=19     height=27     xoffset=0     yoffset=3    xadvance=23     page=0  chnl=0 
char id=90   x=304     y=36     width=22     height=27     xoffset=-1     yoffset=3    xadvance=23     page=0  chnl=0 
char id=89   x=326     y=36     width=24     height=27     xoffset=-2     yoffset=3    xadvance=23     page=0  chnl=0 
char id=88   x=350     y=36     width=24     height=27     xoffset=-2     yoffset=3    xadvance=23     page=0  chnl=0 
char id=87   x=374     y=36     width=24     height=27     xoffset=-2     yoffset=3    xadvance=23     page=0  chnl=0 
char id=86   x=398     y=36     width=24     height=27     xoffset=-2     yoffset=3    xadvance=23     page=0  chnl=0 
char id=85   x=422     y=36     width=20     height=27     xoffset=0     yoffset=3    xadvance=23     page=0  chnl=0 
char id=84   x=442     y=36     width=22     height=27     xoffset=-1     yoffset=3    xadvance=23     page=0  chnl=0 
char id=83   x=464     y=36     width=22     height=27     xoffset=-1     yoffset=3    xadvance=23     page=0  chnl=0 
char id=82   x=486     y=36     width=22     height=27     xoffset=0     yoffset=3    xadvance=23     page=0  chnl=0 
char id=80   x=0     y=63     width=21     height=27     xoffset=0     yoffset=3    xadvance=23     page=0  chnl=0 
char id=79   x=21     y=63     width=22     height=27     xoffset=-1     yoffset=3    xadvance=23     page=0  chnl=0 
char id=78   x=43     y=63     width=20     height=27     xoffset=0     yoffset=3    xadvance=23     page=0  chnl=0 
char id=77   x=63     y=63     width=20     height=27     xoffset=0     yoffset=3    xadvance=23     page=0  chnl=0 
char id=76   x=83     y=63     width=20     height=27     xoffset=1     yoffset=3    xadvance=23     page=0  chnl=0 
char id=75   x=103     y=63     width=22     height=27     xoffset=0     yoffset=3    xadvance=23     page=0  chnl=0 
char id=74   x=125     y=63     width=19     height=27     xoffset=0     yoffset=3    xadvance=23     page=0  chnl=0 
char id=73   x=144     y=63     width=18     height=27     xoffset=1     yoffset=3    xadvance=23     page=0  chnl=0 
char id=72   x=162     y=63     width=20     height=27     xoffset=0     yoffset=3    xadvance=23     page=0  chnl=0 
char id=71   x=182     y=63     width=22     height=27     xoffset=-1     yoffset=3    xadvance=23     page=0  chnl=0 
char id=70   x=204     y=63     width=19     height=27     xoffset=1     yoffset=3    xadvance=23     page=0  chnl=0 
char id=69   x=223     y=63     width=21     height=27     xoffset=0     yoffset=3    xadvance=23     page=0  chnl=0 
char id=68   x=244     y=63     width=21     height=27     xoffset=0     yoffset=3    xadvance=23     page=0  chnl=0 
char id=67   x=265     y=63     width=22     height=27     xoffset=-1     yoffset=3    xadvance=23     page=0  chnl=0 
char id=66   x=287     y=63     width=21     height=27     xoffset=0     yoffset=3    xadvance=23     page=0  chnl=0 
char id=65   x=308     y=63     width=24     height=27     xoffset=-2     yoffset=3    xadvance=23     page=0  chnl=0 
char id=60   x=332     y=63     width=22     height=23     xoffset=-1     yoffset=5    xadvance=23     page=0  chnl=0 
char id=58   x=354     y=63     width=10     height=23     xoffset=5     yoffset=7    xadvance=23     page=0  chnl=0 
char id=122   x=364     y=63     width=20     height=23     xoffset=0     yoffset=7    xadvance=23     page=0  chnl=0 
char id=120   x=384     y=63     width=22     height=23     xoffset=-1     yoffset=7    xadvance=23     page=0  chnl=0 
char id=119   x=406     y=63     width=24     height=23     xoffset=-2     yoffset=7    xadvance=23     page=0  chnl=0 
char id=118   x=430     y=63     width=22     height=23     xoffset=-1     yoffset=7    xadvance=23     page=0  chnl=0 
char id=117   x=452     y=63     width=20     height=23     xoffset=0     yoffset=7    xadvance=23     page=0  chnl=0 
char id=115   x=472     y=63     width=20     height=23     xoffset=0     yoffset=7    xadvance=23     page=0  chnl=0 
char id=114   x=492     y=63     width=19     height=23     xoffset=1     yoffset=7    xadvance=23     page=0  chnl=0 
char id=111   x=0     y=90     width=20     height=23     xoffset=0     yoffset=7    xadvance=23     page=0  chnl=0 
char id=110   x=20     y=90     width=20     height=23     xoffset=0     yoffset=7    xadvance=23     page=0  chnl=0 
char id=109   x=40     y=90     width=22     height=23     xoffset=-1     yoffset=7    xadvance=23     page=0  chnl=0 
char id=101   x=62     y=90     width=20     height=23     xoffset=0     yoffset=7    xadvance=23     page=0  chnl=0 
char id=99   x=82     y=90     width=20     height=23     xoffset=0     yoffset=7    xadvance=23     page=0  chnl=0 
char id=97   x=102     y=90     width=22     height=23     xoffset=-1     yoffset=7    xadvance=23     page=0  chnl=0 
char id=62   x=124     y=90     width=22     height=22     xoffset=-1     yoffset=6    xadvance=23     page=0  chnl=0 
char id=43   x=146     y=90     width=22     height=21     xoffset=-1     yoffset=6    xadvance=23     page=0  chnl=0 
char id=94   x=168     y=90     width=20     height=20     xoffset=0     yoffset=3    xadvance=23     page=0  chnl=0 
char id=127   x=188     y=90     width=18     height=18     xoffset=-1     yoffset=12    xadvance=23     page=0  chnl=0 
char id=42   x=206     y=90     width=18     height=18     xoffset=1     yoffset=1    xadvance=23     page=0  chnl=0 
char id=44   x=224     y=90     width=12     height=16     xoffset=2     yoffset=19    xadvance=23     page=0  chnl=0 
char id=39   x=236     y=90     width=10     height=16     xoffset=5     yoffset=1    xadvance=23     page=0  chnl=0 
char id=34   x=246     y=90     width=16     height=16     xoffset=2     yoffset=1    xadvance=23     page=0  chnl=0 
char id=61   x=262     y=90     width=22     height=15     xoffset=-1     yoffset=9    xadvance=23     page=0  chnl=0 
char id=46   x=284     y=90     width=10     height=11     xoffset=5     yoffset=19    xadvance=23     page=0  chnl=0 
char id=126   x=294     y=90     width=22     height=10     xoffset=-1     yoffset=11    xadvance=23     page=0  chnl=0 
char id=96   x=316     y=90     width=12     height=10     xoffset=4     yoffset=1    xadvance=23     page=0  chnl=0 
char id=45   x=328     y=90     width=14     height=9     xoffset=3     yoffset=14    xadvance=23     page=0  chnl=0 
char id=95   x=342     y=90     width=26     height=8     xoffset=-3     yoffset=26    xadvance=23     page=0  chnl=0 
